{
  "project_info": {
    "project_number": "108476288172",
    "firebase_url": "https://rchapp-4dfbc.firebaseio.com",
    "project_id": "rchapp-4dfbc",
    "storage_bucket": "rchapp-4dfbc.appspot.com"
  },
  "client": [
    {
      "client_info": {
        "mobilesdk_app_id": "1:108476288172:android:68ec751740cc08ee",
        "android_client_info": {
          "package_name": "com.example.crisp.rchapp"
        }
      },
      "oauth_client": [
        {
          "client_id": "108476288172-kf8rn0559tqd39fj1vhkp2m4i8jibl2k.apps.googleusercontent.com",
          "client_type": 3
        }
      ],
      "api_key": [
        {
          "current_key": "AIzaSyDjlfrOWSaO4_v4ptm8ALR1TgSluyRRV0w"
        }
      ],
      "services": {
        "analytics_service": {
          "status": 1
        },
        "appinvite_service": {
          "status": 1,
          "other_platform_oauth_client": []
        },
        "ads_service": {
          "status": 2
        }
      }
    }
  ],
  "configuration_version": "1"
}